%YAML 1.1
%TAG !u! tag:unity3d.com,2011:
--- !u!114 &11400000
MonoBehaviour:
  m_ObjectHideFlags: 0
  m_CorrespondingSourceObject: {fileID: 0}
  m_PrefabInstance: {fileID: 0}
  m_PrefabAsset: {fileID: 0}
  m_GameObject: {fileID: 0}
  m_Enabled: 1
  m_EditorHideFlags: 0
  m_Script: {fileID: 11500000, guid: 876e278c85401d74ea1f931e2c4d0e59, type: 3}
  m_Name: 2 Chapter 1 Level 1
  m_EditorClassIdentifier: 
  chapterCover: {fileID: 0}
  sceneName: Forest 1
  levelName: 
  levelStory: 
  winStory: 
  loseStory: 
  unlockChapter: 0
  nextLevel: {fileID: 11400000, guid: f4dafc93b9b191544a45b97def1a5076, type: 2}
  music: {fileID: 8300000, guid: 92a00954366a9cb4b9f23a866ec1e6b1, type: 3}
  stopMusic: 0
