%YAML 1.1
%TAG !u! tag:unity3d.com,2011:
--- !u!114 &11400000
MonoBehaviour:
  m_ObjectHideFlags: 0
  m_CorrespondingSourceObject: {fileID: 0}
  m_PrefabInstance: {fileID: 0}
  m_PrefabAsset: {fileID: 0}
  m_GameObject: {fileID: 0}
  m_Enabled: 1
  m_EditorHideFlags: 0
  m_Script: {fileID: 11500000, guid: 876e278c85401d74ea1f931e2c4d0e59, type: 3}
  m_Name: Chapter 3 Level 2
  m_EditorClassIdentifier: 
  chapterCover: {fileID: 0}
  sceneName: Chapter 3 intro 4
  levelName: 
  levelStory: 
  winStory: 
  loseStory: 
  unlockChapter: 0
  nextLevel: {fileID: 11400000, guid: b1be968804bd7fc439b56537d47fdeba, type: 2}
  music: {fileID: 0}
  stopMusic: 0
