%YAML 1.1
%TAG !u! tag:unity3d.com,2011:
--- !u!114 &11400000
MonoBehaviour:
  m_ObjectHideFlags: 0
  m_CorrespondingSourceObject: {fileID: 0}
  m_PrefabInstance: {fileID: 0}
  m_PrefabAsset: {fileID: 0}
  m_GameObject: {fileID: 0}
  m_Enabled: 1
  m_EditorHideFlags: 0
  m_Script: {fileID: 11500000, guid: 876e278c85401d74ea1f931e2c4d0e59, type: 3}
  m_Name: Chapter 3 Level 1
  m_EditorClassIdentifier: 
  chapterCover: {fileID: 0}
  sceneName: Chapter 3 intro 1
  levelName: 
  levelStory: 
  winStory: 
  loseStory: 
  unlockChapter: 0
  nextLevel: {fileID: 11400000, guid: 8af30d72e551aaa44a7e2054f428b6b6, type: 2}
  music: {fileID: 8300000, guid: 842891673c6ccb04eb47fd6d5cbe4fbf, type: 3}
  stopMusic: 0
