%YAML 1.1
%TAG !u! tag:unity3d.com,2011:
--- !u!114 &11400000
MonoBehaviour:
  m_ObjectHideFlags: 0
  m_CorrespondingSourceObject: {fileID: 0}
  m_PrefabInstance: {fileID: 0}
  m_PrefabAsset: {fileID: 0}
  m_GameObject: {fileID: 0}
  m_Enabled: 1
  m_EditorHideFlags: 0
  m_Script: {fileID: 11500000, guid: 876e278c85401d74ea1f931e2c4d0e59, type: 3}
  m_Name: Tutorial 2
  m_EditorClassIdentifier: 
  chapterCover: {fileID: 0}
  sceneName: Tutorial level 2
  levelName: 
  levelStory: 
  winStory: 
  loseStory: 
  nextLevel: {fileID: 11400000, guid: e440fb9e2bc301c4cae83e62fe8cd116, type: 2}
