%YAML 1.1
%TAG !u! tag:unity3d.com,2011:
--- !u!1045 &1
EditorBuildSettings:
  m_ObjectHideFlags: 0
  serializedVersion: 2
  m_Scenes:
  - enabled: 1
    path: Assets/Scenes/Menu.unity
    guid: 14bfb25619d759b4280bf97cd0651d34
  - enabled: 1
    path: Assets/Scenes/COPY ME.unity
    guid: d531e5ab8a178c64ca2b790a166ce2dc
  - enabled: 1
    path: Assets/Scenes/Test Scenes/Speed_1.unity
    guid: 14f280520c837734280819c3f5081f75
  - enabled: 1
    path: Assets/Scenes/Older&Untested/Tutorial/Tutorial level 2.unity
    guid: 54ae843a5a6ee3345a41fa0bb819e576
  - enabled: 1
    path: Assets/Scenes/Chapter 1/First/Old Chapter 1 Level 4.unity
    guid: 92586f556e3900e448fa5592d60697d1
  - enabled: 1
    path: Assets/Scenes/Older&Untested/Hard Level.unity
    guid: 37a7cc3a00c0675468f5a23c93471dee
  - enabled: 1
    path: Assets/Scenes/Older&Untested/Boss Fight.unity
    guid: 3c00fdc6c34651b4694b44e5e9932415
  - enabled: 1
    path: Assets/Scenes/Older&Untested/Tutorial/Tutorial Level 1.unity
    guid: 6ec127f9d84ce524bb7987c9675b693d
  - enabled: 1
    path: Assets/Scenes/Older&Untested/Tutorial/Tutorial level 3.unity
    guid: baf70f332d4efad4dbab51a646f9b360
  - enabled: 1
    path: Assets/Scenes/Older&Untested/Tutorial/Tutorial level 4.unity
    guid: 180da2c8996c32f49a2b68d867fc3e34
  - enabled: 1
    path: Assets/Scenes/Chapter 1/First/Old Chapter 1 Level 1.unity
    guid: bd016dbd7e4542c40b5ef96b6ff64451
  - enabled: 1
    path: Assets/Scenes/Older&Untested/Chapter 3 level 1.unity
    guid: 85141791e06a2c04ea18b3165f27a2d8
  - enabled: 1
    path: Assets/Scenes/Chapter 2/Old/Old Chapter 2 level 1.unity
    guid: 2ca7c74a6b41464499c180f652f6c3d4
  - enabled: 1
    path: Assets/Scenes/Chapter 1/Forest Boss.unity
    guid: aacf66e3936e1cc44bf5b4eb80edefe0
  - enabled: 1
    path: Assets/Scenes/Chapter 1/First/Old Chapter 1 Level 2.unity
    guid: bbb3552de011ebe4b92bc15a1c178c80
  - enabled: 1
    path: Assets/Scenes/Chapter 1/First/Old Chapter 1 Level 5.unity
    guid: 12e082df09169af488f4d00c0c36e12b
  - enabled: 1
    path: Assets/Scenes/Chapter 1/First/Old Chapter 1 Level 6.unity
    guid: dda9181050e45044ebf95666700e9107
  - enabled: 1
    path: Assets/Scenes/Older&Untested/Chapter 2 Temp/Level 1.unity
    guid: 23837e981714daa4c8e77ec9482d1ecc
  - enabled: 1
    path: Assets/Scenes/Older&Untested/Chapter 2 Temp/Chapter 1 Level 6.unity
    guid: 96073122b25a70849be92158596985cd
  - enabled: 1
    path: Assets/Scenes/Chapter 2/Old/Old Chapter 2 level 2.unity
    guid: e57c71c3b3ae6f642a57140dbe27ab38
  - enabled: 1
    path: Assets/Scenes/Chapter 2/Old/Old Chapter 2 level 3.unity
    guid: 18d6f5961191e9c4d90bce98f6a6cf8f
  - enabled: 1
    path: Assets/Scenes/Chapter 1/First/ARENA.unity
    guid: d7c6b0c41f33c6a488fa4e8b57c7a579
  - enabled: 1
    path: Assets/Scenes/Chapter 2/Old/Old Pre_2.unity
    guid: ed41e221cb88d7e42961fd2ff7d2025b
  - enabled: 1
    path: Assets/Scenes/Chapter 2/Old/Old Pre_1.unity
    guid: 6d3be96171cf39947a996794a93bac17
  - enabled: 1
    path: Assets/Scenes/Chapter 4/Dragon boss.unity
    guid: 2218b40a3be91534287b20d0fdd95b88
  - enabled: 1
    path: Assets/Scenes/Chapter 3/Chapter 3 intro 1.unity
    guid: 73d0393ac78caca41ab388598a3cb02f
  - enabled: 1
    path: Assets/Scenes/Chapter 3/Chapter 3 intro 4.unity
    guid: ff6e406a27700e040a14dbb57a260d09
  - enabled: 1
    path: Assets/Scenes/Chapter 4/Dragon boss 2.unity
    guid: c19c0ff7da5a7624aa6e23579bc57d32
  - enabled: 1
    path: Assets/Scenes/Chapter 4/Dragon boss 3.unity
    guid: 427b2277e4139354ea31d5dfece249e3
  - enabled: 1
    path: Assets/Scenes/Chapter 4/Dragon boss 4.unity
    guid: 0e33c825c9473f9478a9207df1011a06
  - enabled: 1
    path: Assets/Scenes/Chapter 3/Chapter 3 intro 5.unity
    guid: a869e387dc0572349b012df5285be1cc
  - enabled: 1
    path: Assets/Scenes/Chapter 3/Chapter 3 intro 6.unity
    guid: 883cff38c9b1d104e9dfbca70bb182cd
  - enabled: 1
    path: Assets/Scenes/Chapter 3/Chapter 3 intro 7.unity
    guid: 21b477230ad1dc04a81af2fdaeee124f
  - enabled: 1
    path: Assets/Scenes/Chapter 3/Intro_2.unity
    guid: 1c0bfbc50e71fe44e95599786af8c902
  - enabled: 1
    path: Assets/Scenes/Chapter 1/First/Old Chapter 1 Level 3.unity
    guid: 51688472b98081c4a9f8bd1d67f1427b
  - enabled: 1
    path: Assets/Scenes/Chapter 1/Second/Old 2 Chapter 1 Level 1.unity
    guid: 7b77686ac1f19d846b775568b446f446
  - enabled: 0
    path: Assets/Scenes/Chapter 1/Second/Old 2 Chapter 1 Level 2.unity
    guid: da2e366d0d20be24a9b0c35d65ed1737
  - enabled: 1
    path: Assets/Scenes/Chapter 1/Second/Old 2 Chapter 1 Level 3.unity
    guid: 7feae58265f73dc4eada2a00a2ecafaa
  - enabled: 1
    path: Assets/Scenes/Chapter 1/Second/Old 2 Chapter 1 Level 5.unity
    guid: 4a45f2cd2b91fd94cb13c72dabc1192c
  - enabled: 1
    path: Assets/Scenes/Chapter 1/Forest 1.unity
    guid: 1fecfe934f6c3de4d918a12dff4d03f2
  - enabled: 1
    path: Assets/Scenes/Chapter 1/Forest 2.unity
    guid: da9d53c70bbaf6e4084d64fa1207c03e
  - enabled: 1
    path: Assets/Scenes/Chapter 1/Forest 4.unity
    guid: aa21f89084c56724f9a044cdd2544484
  - enabled: 1
    path: Assets/Scenes/Chapter 1/Forest 5.unity
    guid: 860cec705938d8a4995b89c342f81abd
  m_configObjects: {}
