%YAML 1.1
%TAG !u! tag:unity3d.com,2011:
--- !u!1001 &1003299607734593957
PrefabInstance:
  m_ObjectHideFlags: 0
  serializedVersion: 2
  m_Modification:
    m_TransformParent: {fileID: 0}
    m_Modifications:
    - target: {fileID: 1813462326638512151, guid: adb2841372e5c9e479d81c22b167c7cf,
        type: 3}
      propertyPath: m_LocalPosition.x
      value: -24.61
      objectReference: {fileID: 0}
    - target: {fileID: 1813462326638512151, guid: adb2841372e5c9e479d81c22b167c7cf,
        type: 3}
      propertyPath: m_LocalPosition.y
      value: 0.95
      objectReference: {fileID: 0}
    - target: {fileID: 1813462326638512151, guid: adb2841372e5c9e479d81c22b167c7cf,
        type: 3}
      propertyPath: m_LocalPosition.z
      value: 0
      objectReference: {fileID: 0}
    - target: {fileID: 1813462326638512151, guid: adb2841372e5c9e479d81c22b167c7cf,
        type: 3}
      propertyPath: m_LocalRotation.x
      value: 0
      objectReference: {fileID: 0}
    - target: {fileID: 1813462326638512151, guid: adb2841372e5c9e479d81c22b167c7cf,
        type: 3}
      propertyPath: m_LocalRotation.y
      value: 0
      objectReference: {fileID: 0}
    - target: {fileID: 1813462326638512151, guid: adb2841372e5c9e479d81c22b167c7cf,
        type: 3}
      propertyPath: m_LocalRotation.z
      value: 0
      objectReference: {fileID: 0}
    - target: {fileID: 1813462326638512151, guid: adb2841372e5c9e479d81c22b167c7cf,
        type: 3}
      propertyPath: m_LocalRotation.w
      value: 1
      objectReference: {fileID: 0}
    - target: {fileID: 1813462326638512151, guid: adb2841372e5c9e479d81c22b167c7cf,
        type: 3}
      propertyPath: m_RootOrder
      value: 0
      objectReference: {fileID: 0}
    - target: {fileID: 1813462326638512151, guid: adb2841372e5c9e479d81c22b167c7cf,
        type: 3}
      propertyPath: m_LocalEulerAnglesHint.x
      value: 0
      objectReference: {fileID: 0}
    - target: {fileID: 1813462326638512151, guid: adb2841372e5c9e479d81c22b167c7cf,
        type: 3}
      propertyPath: m_LocalEulerAnglesHint.y
      value: 0
      objectReference: {fileID: 0}
    - target: {fileID: 1813462326638512151, guid: adb2841372e5c9e479d81c22b167c7cf,
        type: 3}
      propertyPath: m_LocalEulerAnglesHint.z
      value: 0
      objectReference: {fileID: 0}
    - target: {fileID: 3599650390966018511, guid: adb2841372e5c9e479d81c22b167c7cf,
        type: 3}
      propertyPath: m_SortingOrder
      value: 2
      objectReference: {fileID: 0}
    - target: {fileID: 7562428041689405749, guid: adb2841372e5c9e479d81c22b167c7cf,
        type: 3}
      propertyPath: m_Name
      value: Dropdown
      objectReference: {fileID: 0}
    m_RemovedComponents: []
  m_SourcePrefab: {fileID: 100100000, guid: adb2841372e5c9e479d81c22b167c7cf, type: 3}
